\babel@toc {slovak}{}
\contentsline {chapter}{\numberline {1}Kvetná nedeľa}{9}{chapter.1}
\contentsline {chapter}{\numberline {2}Zelený štvrtok}{11}{chapter.2}
\contentsline {chapter}{\numberline {3}Veľký piatok}{13}{chapter.3}
\contentsline {chapter}{\numberline {4}Biela sobota. Veľkonočná vigília}{15}{chapter.4}
\contentsline {section}{\numberline {4.1}1. časť: Slávnostný začiatok vigílie: Obrad svetla}{15}{section.4.1}
\contentsline {subsection}{\numberline {4.1.1}Požehnanie ohňa a príprava veľkonočnej sviece}{15}{subsection.4.1.1}
